\relax 
\providecommand\hyper@newdestlabel[2]{}
\@writefile{toc}{\contentsline {chapter}{\numberline {4}Leçons 6 à 9 -- Niveau 0: portes logiques}{99}{chapter.4}\protected@file@percent }
\@writefile{lof}{\addvspace {10\p@ }}
\@writefile{lot}{\addvspace {10\p@ }}
\@writefile{lol}{\addvspace {10\p@ }}
\newlabel{cha:portes}{{4}{99}{Leçons 6 à 9 -- Niveau 0: portes logiques}{chapter.4}{}}
\@writefile{toc}{\contentsline {section}{\numberline {4.1}L'algèbre Booléenne}{99}{section.4.1}\protected@file@percent }
\newlabel{sec:lalgebre-booleenne}{{4.1}{99}{L'algèbre Booléenne}{section.4.1}{}}
\@writefile{toc}{\contentsline {paragraph}{\nonumberline Tables de vérité}{100}{section*.86}\protected@file@percent }
\@writefile{toc}{\contentsline {paragraph}{\nonumberline L'opérateur { \textbf  {et}}\xspace  }{100}{section*.87}\protected@file@percent }
\@writefile{toc}{\contentsline {paragraph}{\nonumberline L'opérateur { \textbf  {ou}}\xspace  }{101}{section*.88}\protected@file@percent }
\@writefile{toc}{\contentsline {paragraph}{\nonumberline L'opérateur \emph  {ou exclusif}}{101}{section*.89}\protected@file@percent }
\@writefile{toc}{\contentsline {paragraph}{\nonumberline L'opérateur { \textbf  {non}}\xspace  }{101}{section*.90}\protected@file@percent }
\@writefile{toc}{\contentsline {paragraph}{\nonumberline Autres opérateurs}{101}{section*.91}\protected@file@percent }
\@writefile{toc}{\contentsline {paragraph}{\nonumberline Priorité des opérateurs}{102}{section*.92}\protected@file@percent }
\@writefile{toc}{\contentsline {paragraph}{\nonumberline Identités remarquables}{102}{section*.93}\protected@file@percent }
\newlabel{eq:xetun}{{\relax 4.1}{102}{Identités remarquables}{equation.4.1.1}{}}
\newlabel{eq:xetzero}{{\relax 4.2}{102}{Identités remarquables}{equation.4.1.2}{}}
\newlabel{eq:xouun}{{\relax 4.3}{102}{Identités remarquables}{equation.4.1.3}{}}
\newlabel{eq:xouzero}{{\relax 4.4}{102}{Identités remarquables}{equation.4.1.4}{}}
\newlabel{eq:xnotx}{{\relax 4.5}{103}{Identités remarquables}{equation.4.1.5}{}}
\newlabel{eq:xorx}{{\relax 4.6}{103}{Identités remarquables}{equation.4.1.6}{}}
\newlabel{eq:and-dist-or}{{\relax 4.7}{103}{Identités remarquables}{equation.4.1.7}{}}
\newlabel{eq:DM1}{{\relax 4.8}{103}{Identités remarquables}{equation.4.1.8}{}}
\newlabel{eq:DM2}{{\relax 4.9}{103}{Identités remarquables}{equation.4.1.9}{}}
\@writefile{toc}{\contentsline {paragraph}{\nonumberline Des expressions Booléennes aux tables de vérité}{103}{section*.94}\protected@file@percent }
\@writefile{toc}{\contentsline {paragraph}{\nonumberline Des tables de vérité aux expressions Booléennes}{104}{section*.95}\protected@file@percent }
\@writefile{lof}{\contentsline {figure}{\numberline {\relax 4.1}{\ignorespaces Quelques portes logiques de base.\relax }}{106}{figure.caption.96}\protected@file@percent }
\newlabel{fig:gates}{{\relax 4.1}{106}{Quelques portes logiques de base.\relax }{figure.caption.96}{}}
\@writefile{toc}{\contentsline {section}{\numberline {4.2}Les circuits logiques}{106}{section.4.2}\protected@file@percent }
\@writefile{toc}{\contentsline {subsection}{\numberline {4.2.1}Les portes logiques en pratique}{106}{subsection.4.2.1}\protected@file@percent }
\@writefile{lof}{\contentsline {figure}{\numberline {\relax 4.2}{\ignorespaces Exemples de transistors.\relax }}{106}{figure.caption.97}\protected@file@percent }
\newlabel{fig:transistors}{{\relax 4.2}{106}{Exemples de transistors.\relax }{figure.caption.97}{}}
\@writefile{toc}{\contentsline {paragraph}{\nonumberline Aspects historiques}{107}{section*.98}\protected@file@percent }
\@writefile{lof}{\contentsline {figure}{\numberline {\relax 4.3}{\ignorespaces Exemple de tubes IBM.\relax }}{108}{figure.caption.99}\protected@file@percent }
\newlabel{fig:tubesibm}{{\relax 4.3}{108}{Exemple de tubes IBM.\relax }{figure.caption.99}{}}
\@writefile{toc}{\contentsline {paragraph}{\nonumberline Les circuits logiques aujourd'hui, et demain\ldots  }{108}{section*.100}\protected@file@percent }
\@writefile{toc}{\contentsline {subsection}{\numberline {4.2.2}De la formule Booléenne au circuit logique}{109}{subsection.4.2.2}\protected@file@percent }
\@writefile{toc}{\contentsline {section}{\numberline {4.3}Circuits pour réaliser l'arithmétique binaire}{110}{section.4.3}\protected@file@percent }
\@writefile{toc}{\contentsline {subsection}{\numberline {4.3.1}Circuit additionneur}{111}{subsection.4.3.1}\protected@file@percent }
\@writefile{lof}{\contentsline {figure}{\numberline {\relax 4.4}{\ignorespaces Le demi-additionneur.\relax }}{112}{figure.caption.101}\protected@file@percent }
\newlabel{fig:demi-add}{{\relax 4.4}{112}{Le demi-additionneur.\relax }{figure.caption.101}{}}
\@writefile{toc}{\contentsline {subsection}{\numberline {4.3.2}Demi-additionneur}{112}{subsection.4.3.2}\protected@file@percent }
\@writefile{toc}{\contentsline {paragraph}{\nonumberline Additionneur}{112}{section*.102}\protected@file@percent }
\@writefile{lof}{\contentsline {figure}{\numberline {\relax 4.5}{\ignorespaces Un additionneur complet}}{113}{figure.caption.103}\protected@file@percent }
\newlabel{fig:fulladd}{{\relax 4.5}{113}{Un additionneur complet}{figure.caption.103}{}}
\@writefile{lof}{\contentsline {figure}{\numberline {\relax 4.6}{\ignorespaces Additionneur $n$ bits}}{114}{figure.caption.105}\protected@file@percent }
\newlabel{fig:addnbits}{{\relax 4.6}{114}{Additionneur $n$ bits}{figure.caption.105}{}}
\@writefile{toc}{\contentsline {paragraph}{\nonumberline Additionneur $n$ bits}{114}{section*.104}\protected@file@percent }
\@writefile{toc}{\contentsline {subsection}{\numberline {4.3.3}Décalage}{115}{subsection.4.3.3}\protected@file@percent }
\@writefile{lof}{\contentsline {figure}{\numberline {\relax 4.7}{\ignorespaces Le circuit de décalage 3 bits.\relax }}{116}{figure.caption.106}\protected@file@percent }
\newlabel{fig:decal}{{\relax 4.7}{116}{Le circuit de décalage 3 bits.\relax }{figure.caption.106}{}}
\@writefile{toc}{\contentsline {paragraph}{\nonumberline Extensions}{116}{section*.107}\protected@file@percent }
\@writefile{toc}{\contentsline {subsection}{\numberline {4.3.4}Décodeur}{117}{subsection.4.3.4}\protected@file@percent }
\@writefile{lof}{\contentsline {figure}{\numberline {\relax 4.8}{\ignorespaces Un décodeur 4 bits.\relax }}{118}{figure.caption.108}\protected@file@percent }
\newlabel{fig:decodeur4bits}{{\relax 4.8}{118}{Un décodeur 4 bits.\relax }{figure.caption.108}{}}
\@writefile{lof}{\contentsline {figure}{\numberline {\relax 4.9}{\ignorespaces Des afficheurs 7 segments}}{118}{figure.caption.109}\protected@file@percent }
\newlabel{fig:sevenseg}{{\relax 4.9}{118}{Des afficheurs 7 segments}{figure.caption.109}{}}
\@writefile{toc}{\contentsline {subsection}{\numberline {4.3.5}Le <<~sélecteur~>>}{118}{subsection.4.3.5}\protected@file@percent }
\@writefile{toc}{\contentsline {subsection}{\numberline {4.3.6}ALU simplifiée (1 bit)}{119}{subsection.4.3.6}\protected@file@percent }
\@writefile{lof}{\contentsline {figure}{\numberline {\relax 4.10}{\ignorespaces Le principe d'un sélecteur $n$ bits.\relax }}{120}{figure.caption.110}\protected@file@percent }
\newlabel{fig:select}{{\relax 4.10}{120}{Le principe d'un sélecteur $n$ bits.\relax }{figure.caption.110}{}}
\@writefile{lot}{\contentsline {table}{\numberline {\relax 4.1}{\ignorespaces Les 4 opérations de notre exemple d'ALU, ainsi que les entrées qui y correspondent.\relax }}{121}{table.caption.111}\protected@file@percent }
\newlabel{tab:alu-op}{{\relax 4.1}{121}{Les 4 opérations de notre exemple d'ALU, ainsi que les entrées qui y correspondent.\relax }{table.caption.111}{}}
\@writefile{toc}{\contentsline {subsection}{\numberline {4.3.7}ALU $n$ bits}{121}{subsection.4.3.7}\protected@file@percent }
\@writefile{lof}{\contentsline {figure}{\numberline {\relax 4.11}{\ignorespaces Une ALU 1 bit avec 4 opérations.\relax }}{122}{figure.caption.112}\protected@file@percent }
\newlabel{fig:ALU}{{\relax 4.11}{122}{Une ALU 1 bit avec 4 opérations.\relax }{figure.caption.112}{}}
\@writefile{lof}{\contentsline {figure}{\numberline {\relax 4.12}{\ignorespaces La représentation d'une ALU.\relax }}{123}{figure.caption.113}\protected@file@percent }
\newlabel{fig:repr-ALU}{{\relax 4.12}{123}{La représentation d'une ALU.\relax }{figure.caption.113}{}}
\@writefile{lof}{\contentsline {figure}{\numberline {\relax 4.13}{\ignorespaces Une ALU $4$ bits réalisée sur base de $4$ ALUs $1$ bit}}{124}{figure.caption.114}\protected@file@percent }
\newlabel{fig:ALU4bits}{{\relax 4.13}{124}{Une ALU $4$ bits réalisée sur base de $4$ ALUs $1$ bit}{figure.caption.114}{}}
\@writefile{toc}{\contentsline {paragraph}{\nonumberline Remarque concernant les reports}{124}{section*.115}\protected@file@percent }
\@writefile{toc}{\contentsline {section}{\numberline {4.4}Circuits pour réaliser des mémoires}{125}{section.4.4}\protected@file@percent }
\@writefile{toc}{\contentsline {subsection}{\numberline {4.4.1}Mémoire élémentaire}{125}{subsection.4.4.1}\protected@file@percent }
\@writefile{lof}{\contentsline {figure}{\numberline {\relax 4.14}{\ignorespaces Une boucle de portes { \textbf  {non}}\xspace  qui permet de stocker une valeur binaire.\relax }}{126}{figure.caption.116}\protected@file@percent }
\newlabel{fig:boucle}{{\relax 4.14}{126}{Une boucle de portes \non qui permet de stocker une valeur binaire.\relax }{figure.caption.116}{}}
\@writefile{toc}{\contentsline {subsection}{\numberline {4.4.2}Bascules}{126}{subsection.4.4.2}\protected@file@percent }
\@writefile{toc}{\contentsline {paragraph}{\nonumberline Bascule simple}{126}{section*.117}\protected@file@percent }
\@writefile{lof}{\contentsline {figure}{\numberline {\relax 4.15}{\ignorespaces Une bascule.\relax }}{127}{figure.caption.118}\protected@file@percent }
\newlabel{fig:bascule}{{\relax 4.15}{127}{Une bascule.\relax }{figure.caption.118}{}}
\newlabel{eq:bascule1}{{\relax 4.10}{127}{Bascule simple}{equation.4.4.10}{}}
\newlabel{eq:bascule2}{{\relax 4.11}{127}{Bascule simple}{equation.4.4.11}{}}
\newlabel{eq:basculeetat}{{\relax 4.12}{128}{Bascule simple}{equation.4.4.12}{}}
\@writefile{toc}{\contentsline {paragraph}{\nonumberline Utilité d'une horloge}{128}{section*.119}\protected@file@percent }
\@writefile{lof}{\contentsline {figure}{\numberline {\relax 4.16}{\ignorespaces Une bascule avec horloge.\relax }}{129}{figure.caption.121}\protected@file@percent }
\newlabel{fig:basculehorloge}{{\relax 4.16}{129}{Une bascule avec horloge.\relax }{figure.caption.121}{}}
\@writefile{toc}{\contentsline {paragraph}{\nonumberline Bascule avec horloge}{129}{section*.120}\protected@file@percent }
\@writefile{toc}{\contentsline {paragraph}{\nonumberline Bascule $D$}{129}{section*.122}\protected@file@percent }
\@writefile{lof}{\contentsline {figure}{\numberline {\relax 4.17}{\ignorespaces Une bascule $D$.\relax }}{130}{figure.caption.123}\protected@file@percent }
\newlabel{fig:basculeD}{{\relax 4.17}{130}{Une bascule $D$.\relax }{figure.caption.123}{}}
\@writefile{lof}{\contentsline {figure}{\numberline {\relax 4.18}{\ignorespaces Un générateur de pulsation}}{130}{figure.caption.124}\protected@file@percent }
\newlabel{fig:pulse}{{\relax 4.18}{130}{Un générateur de pulsation}{figure.caption.124}{}}
\@writefile{toc}{\contentsline {subsection}{\numberline {4.4.3}Flip-flops}{130}{subsection.4.4.3}\protected@file@percent }
\@writefile{toc}{\contentsline {paragraph}{\nonumberline Générateur de pulsation}{130}{section*.125}\protected@file@percent }
\@writefile{lof}{\contentsline {figure}{\numberline {\relax 4.19}{\ignorespaces Le circuit logique d'une flip-flop.\relax }}{131}{figure.caption.127}\protected@file@percent }
\newlabel{fig:flipflop-circuit}{{\relax 4.19}{131}{Le circuit logique d'une flip-flop.\relax }{figure.caption.127}{}}
\@writefile{lof}{\contentsline {figure}{\numberline {\relax 4.20}{\ignorespaces Une flip-flop, avec ses deux entrées $D$ et horloge, et ses deux sorties $Q$ et $\overline  {Q}$.\relax }}{131}{figure.caption.128}\protected@file@percent }
\newlabel{fig:flipflop}{{\relax 4.20}{131}{Une flip-flop, avec ses deux entrées $D$ et horloge, et ses deux sorties $Q$ et $\overline {Q}$.\relax }{figure.caption.128}{}}
\@writefile{toc}{\contentsline {paragraph}{\nonumberline Flip-flop}{131}{section*.126}\protected@file@percent }
\@writefile{toc}{\contentsline {subsection}{\numberline {4.4.4}Un circuit de mémoire complet}{131}{subsection.4.4.4}\protected@file@percent }
\@writefile{lof}{\contentsline {figure}{\numberline {\relax 4.21}{\ignorespaces Mémoire: lecture du bit $i$ parmi 4 adresses.\relax }}{133}{figure.caption.129}\protected@file@percent }
\newlabel{fig:memoire-lecture}{{\relax 4.21}{133}{Mémoire: lecture du bit $i$ parmi 4 adresses.\relax }{figure.caption.129}{}}
\@writefile{lof}{\contentsline {figure}{\numberline {\relax 4.22}{\ignorespaces Mémoire: écriture d'un bit $i$ parmi 4 adresses.\relax }}{134}{figure.caption.130}\protected@file@percent }
\newlabel{fig:memoire-ecriture}{{\relax 4.22}{134}{Mémoire: écriture d'un bit $i$ parmi 4 adresses.\relax }{figure.caption.130}{}}
\newlabel{RF4}{135}
\@writefile{lof}{\contentsline {figure}{\numberline {\relax 4.23}{\ignorespaces Une mémoire de 4 mots de 3 bits.\relax }}{135}{figure.caption.131}\protected@file@percent }
\newlabel{fig:memoire}{{\relax 4.23}{135}{Une mémoire de 4 mots de 3 bits.\relax }{figure.caption.131}{}}
\@setckpt{chapters/04-niveau0}{
\setcounter{page}{137}
\setcounter{equation}{12}
\setcounter{enumi}{2}
\setcounter{enumii}{2}
\setcounter{enumiii}{0}
\setcounter{enumiv}{0}
\setcounter{footnote}{34}
\setcounter{mpfootnote}{0}
\setcounter{part}{2}
\setcounter{chapter}{4}
\setcounter{section}{4}
\setcounter{subsection}{4}
\setcounter{subsubsection}{0}
\setcounter{paragraph}{0}
\setcounter{subparagraph}{0}
\setcounter{figure}{23}
\setcounter{table}{1}
\setcounter{FBcaption@count}{0}
\setcounter{parentequation}{0}
\setcounter{lstnumber}{1}
\setcounter{exo}{0}
\setcounter{exercice}{0}
\setcounter{questnum}{0}
\setcounter{Item}{95}
\setcounter{Hfootnote}{80}
\setcounter{Hy@AnnotLevel}{0}
\setcounter{bookmark@seq@number}{0}
\setcounter{r@tfl@t}{4}
\setcounter{tabx@nest}{0}
\setcounter{listtotal}{0}
\setcounter{listcount}{0}
\setcounter{liststart}{0}
\setcounter{liststop}{0}
\setcounter{citecount}{0}
\setcounter{citetotal}{0}
\setcounter{multicitecount}{0}
\setcounter{multicitetotal}{0}
\setcounter{instcount}{40}
\setcounter{maxnames}{3}
\setcounter{minnames}{1}
\setcounter{maxitems}{3}
\setcounter{minitems}{1}
\setcounter{citecounter}{0}
\setcounter{maxcitecounter}{0}
\setcounter{savedcitecounter}{0}
\setcounter{uniquelist}{0}
\setcounter{uniquename}{0}
\setcounter{refsection}{0}
\setcounter{refsegment}{0}
\setcounter{maxextratitle}{0}
\setcounter{maxextratitleyear}{0}
\setcounter{maxextraname}{2}
\setcounter{maxextradate}{0}
\setcounter{maxextraalpha}{0}
\setcounter{abbrvpenalty}{50}
\setcounter{highnamepenalty}{50}
\setcounter{lownamepenalty}{25}
\setcounter{maxparens}{3}
\setcounter{parenlevel}{0}
\setcounter{mincomprange}{10}
\setcounter{maxcomprange}{100000}
\setcounter{mincompwidth}{1}
\setcounter{afterword}{0}
\setcounter{savedafterword}{0}
\setcounter{annotator}{0}
\setcounter{savedannotator}{0}
\setcounter{author}{0}
\setcounter{savedauthor}{0}
\setcounter{bookauthor}{0}
\setcounter{savedbookauthor}{0}
\setcounter{commentator}{0}
\setcounter{savedcommentator}{0}
\setcounter{editor}{0}
\setcounter{savededitor}{0}
\setcounter{editora}{0}
\setcounter{savededitora}{0}
\setcounter{editorb}{0}
\setcounter{savededitorb}{0}
\setcounter{editorc}{0}
\setcounter{savededitorc}{0}
\setcounter{foreword}{0}
\setcounter{savedforeword}{0}
\setcounter{holder}{0}
\setcounter{savedholder}{0}
\setcounter{introduction}{0}
\setcounter{savedintroduction}{0}
\setcounter{namea}{0}
\setcounter{savednamea}{0}
\setcounter{nameb}{0}
\setcounter{savednameb}{0}
\setcounter{namec}{0}
\setcounter{savednamec}{0}
\setcounter{translator}{0}
\setcounter{savedtranslator}{0}
\setcounter{shortauthor}{0}
\setcounter{savedshortauthor}{0}
\setcounter{shorteditor}{0}
\setcounter{savedshorteditor}{0}
\setcounter{labelname}{0}
\setcounter{savedlabelname}{0}
\setcounter{institution}{0}
\setcounter{savedinstitution}{0}
\setcounter{lista}{0}
\setcounter{savedlista}{0}
\setcounter{listb}{0}
\setcounter{savedlistb}{0}
\setcounter{listc}{0}
\setcounter{savedlistc}{0}
\setcounter{listd}{0}
\setcounter{savedlistd}{0}
\setcounter{liste}{0}
\setcounter{savedliste}{0}
\setcounter{listf}{0}
\setcounter{savedlistf}{0}
\setcounter{location}{0}
\setcounter{savedlocation}{0}
\setcounter{organization}{0}
\setcounter{savedorganization}{0}
\setcounter{origlocation}{0}
\setcounter{savedoriglocation}{0}
\setcounter{origpublisher}{0}
\setcounter{savedorigpublisher}{0}
\setcounter{publisher}{0}
\setcounter{savedpublisher}{0}
\setcounter{language}{0}
\setcounter{savedlanguage}{0}
\setcounter{origlanguage}{0}
\setcounter{savedoriglanguage}{0}
\setcounter{pageref}{0}
\setcounter{savedpageref}{0}
\setcounter{textcitecount}{0}
\setcounter{textcitetotal}{0}
\setcounter{textcitemaxnames}{0}
\setcounter{biburlnumpenalty}{0}
\setcounter{biburlucpenalty}{0}
\setcounter{biburllcpenalty}{0}
\setcounter{smartand}{1}
\setcounter{bbx:relatedcount}{0}
\setcounter{bbx:relatedtotal}{0}
\setcounter{ifsymcnt}{0}
\setcounter{caption@flags}{0}
\setcounter{ContinuedFloat}{0}
\setcounter{@todonotes@numberoftodonotes}{0}
\setcounter{tikztiming@nrows}{3}
\setcounter{tikztimingrows}{0}
\setcounter{tikztimingtrans}{-1}
\setcounter{tikztimingtranspos}{0}
\setcounter{theorem}{1}
\setcounter{lstlisting}{0}
\setcounter{section@level}{2}
}
