#FIG 3.2  Produced by xfig version 3.2.5-alpha5
Landscape
Center
Inches
A4      
100.00
Single
-2
1200 2
2 2 0 1 -1 7 0 0 -1 0.000 0 0 0 0 0 5
	 525 825 2325 825 2325 1200 525 1200 525 825
2 2 0 1 -1 7 0 0 -1 0.000 0 0 0 0 0 5
	 3750 825 5625 825 5625 1200 3750 1200 3750 825
2 2 0 1 -1 7 0 0 -1 0.000 0 0 0 0 0 5
	 2475 75 3375 75 3375 300 2475 300 2475 75
2 2 0 1 -1 7 0 0 -1 0.000 0 0 0 0 0 5
	 975 1725 1800 1725 1800 2625 975 2625 975 1725
2 2 0 1 -1 7 0 0 -1 0.000 0 0 0 0 0 5
	 2100 1725 2925 1725 2925 2625 2100 2625 2100 1725
2 2 0 1 -1 7 0 0 -1 0.000 0 0 0 0 0 5
	 4425 1725 5250 1725 5250 2625 4425 2625 4425 1725
2 2 0 1 -1 7 0 0 -1 0.000 0 0 0 0 0 5
	 5400 1725 6225 1725 6225 2625 5400 2625 5400 1725
2 2 0 1 -1 7 0 0 -1 0.000 0 0 0 0 0 5
	 3300 1725 4125 1725 4125 2625 3300 2625 3300 1725
2 2 0 1 -1 7 0 0 -1 0.000 0 0 0 0 0 5
	 75 1725 825 1725 825 2625 75 2625 75 1725
2 1 0 1 -1 7 0 0 -1 0.000 0 0 -1 0 0 2
	 600 1125 300 1725
2 1 0 1 -1 7 0 0 -1 0.000 0 0 -1 0 0 2
	 1275 1125 1275 1725
2 1 0 1 -1 7 0 0 -1 0.000 0 0 -1 0 0 2
	 2175 1125 2475 1725
2 1 0 1 -1 7 0 0 -1 0.000 0 0 -1 0 0 2
	 2775 300 1500 825
2 1 0 1 -1 7 0 0 -1 0.000 0 0 -1 0 0 2
	 3150 300 4575 825
2 1 0 1 -1 7 0 0 -1 0.000 0 0 -1 0 0 2
	 3900 1200 3525 1725
2 1 0 1 -1 7 0 0 -1 0.000 0 0 -1 0 0 2
	 4650 1200 4650 1725
2 1 0 1 -1 7 0 0 -1 0.000 0 0 -1 0 0 2
	 5550 1200 5925 1725
4 0 -1 0 0 0 12 0.0000 4 150 465 2700 225 Indre\001
4 0 -1 0 0 0 12 0.0000 4 150 480 150 2025 Allier\001
4 0 -1 0 0 0 12 0.0000 4 195 765 1050 2025 Aveyron\001
4 0 -1 0 0 0 12 0.0000 4 150 570 1050 2325 Cantal\001
4 0 -1 0 0 0 12 0.0000 4 150 435 2325 2025 Cher\001
4 0 -1 0 0 0 12 0.0000 4 150 555 2325 2325 Doubs\001
4 0 -1 0 0 0 12 0.0000 4 150 375 3525 2025 Jura\001
4 0 -1 0 0 0 12 0.0000 4 150 585 5550 2025 Savoie\001
4 0 -1 0 0 0 12 0.0000 4 150 420 5550 2325 Tarn\001
4 0 -1 0 0 0 12 0.0000 4 150 300 4575 2025 Lot\001
4 0 -1 0 0 0 12 0.0000 4 150 585 4575 2325 Marne\001
4 0 -1 0 0 0 12 0.0000 4 150 600 4800 1050 Meuse\001
4 0 -1 0 0 0 12 0.0000 4 150 810 1500 1050 Calvados\001
4 0 -1 0 0 0 12 0.0000 4 150 480 675 1050 Aude\001
4 0 -1 0 0 0 12 0.0000 4 150 465 3975 1050 Loire\001
4 0 -1 0 0 0 12 0.0000 4 195 600 150 2325 Ariege\001
4 0 -1 0 0 0 12 0.0000 4 150 645 3375 2325 Landes\001
