#FIG 3.1
Landscape
Center
Inches
1200 2
6 75 2100 1500 2700
2 2 0 1 -1 7 0 0 -1 0.000 0 0 0 0 0 5
	 76 2176 901 2176 901 2626 76 2626 76 2176
4 0 -1 0 0 3 9 0.0000000 4 195 1290 151 2326 Annie Hall\001
4 0 -1 0 0 3 9 0.0000000 4 210 750 151 2551 Brazil \001
-6
6 4424 974 6074 1274
2 2 0 1 -1 7 0 0 -1 0.000 0 0 0 0 0 5
	 4425 975 6000 975 6000 1200 4425 1200 4425 975
4 0 -1 0 0 3 9 0.0000000 4 120 525 4500 1125 Psychose\001
4 0 -1 0 0 3 9 0.0000000 4 120 885 5100 1125 Reservoir dogs\001
-6
6 3075 450 3975 750
2 2 0 1 -1 7 0 0 -1 0.000 0 0 0 0 0 5
	 3076 451 3901 451 3901 676 3076 676 3076 451
4 0 -1 0 0 3 9 0.0000000 4 105 825 3076 601 Jurassic Park\001
-6
6 300 2850 1875 3450
2 2 0 1 -1 7 0 0 -1 0.000 0 0 0 0 0 5
	 301 2926 1201 2926 1201 3376 301 3376 301 2926
4 0 -1 0 0 3 9 0.0000000 4 255 1215 376 3301 Easy Rider\001
4 0 -1 0 0 3 9 0.0000000 4 195 1440 376 3076 Casablanca \001
-6
6 1350 2850 2925 3450
2 2 0 1 -1 7 0 0 -1 0.000 0 0 0 0 0 5
	 1352 2927 2177 2927 2177 3377 1352 3377 1352 2927
4 0 -1 0 0 3 9 0.0000000 4 255 1425 1426 3226 Impitoyable \001
4 0 -1 0 0 3 9 0.0000000 4 255 1155 1427 3077 Greystoke\001
-6
6 1050 1650 1650 1950
2 2 0 1 -1 7 0 0 -1 0.000 0 0 0 0 0 5
	 1051 1651 1576 1651 1576 1876 1051 1876 1051 1651
4 0 -1 0 0 3 9 0.0000000 4 90 375 1126 1801 Brazil\001
-6
6 1725 1650 2625 1950
2 2 0 1 -1 7 0 0 -1 0.000 0 0 0 0 0 5
	 1726 1651 2551 1651 2551 1876 1726 1876 1726 1651
4 0 -1 0 0 3 9 0.0000000 4 120 720 1801 1801 Impitoyable\001
-6
6 2175 2175 3900 2550
2 2 0 1 -1 7 0 0 -1 0.000 0 0 0 0 0 5
	 2176 2251 3301 2251 3301 2476 2176 2476 2176 2251
4 0 -1 0 0 3 9 0.0000000 4 210 1590 2251 2401 Jurassic Park \001
-6
6 1425 975 2175 1275
2 2 0 1 -1 7 0 0 -1 0.000 0 0 0 0 0 5
	 1426 976 2101 976 2101 1201 1426 1201 1426 976
4 0 -1 0 0 3 9 0.0000000 4 120 645 1426 1126 Easy Rider\001
-6
6 3375 2175 4875 2775
2 2 0 1 -1 7 0 0 -1 0.000 0 0 0 0 0 5
	 3376 2251 4201 2251 4201 2701 3376 2701 3376 2251
4 0 -1 0 0 3 9 0.0000000 4 195 1410 3451 2401 Manhattan \001
4 0 -1 0 0 3 9 0.0000000 4 255 1320 3451 2626 Metropolis \001
-6
6 3900 2925 5100 3300
2 2 0 1 -1 7 0 0 -1 0.000 0 0 0 0 0 5
	 3901 3001 4576 3001 4576 3226 3901 3226 3901 3001
4 0 -1 0 0 3 9 0.0000000 4 255 1050 3976 3151 Psychose\001
-6
6 4275 1650 5175 1950
2 2 0 1 -1 7 0 0 -1 0.000 0 0 0 0 0 5
	 4276 1651 5101 1651 5101 1876 4276 1876 4276 1651
4 0 -1 0 0 3 9 0.0000000 4 120 660 4351 1801 Metropolis\001
-6
6 4725 2925 5775 3525
2 2 0 1 -1 7 0 0 -1 0.000 0 0 0 0 0 5
	 4726 3001 5326 3001 5326 3451 4726 3451 4726 3001
4 0 -1 0 0 3 9 0.0000000 4 255 900 4801 3376 Shining\001
4 0 -1 0 0 3 9 0.0000000 4 195 795 4801 3151 Smoke\001
-6
6 5400 3000 7350 3450
6 5551 3001 7276 3301
4 0 -1 0 0 3 9 0.0000000 4 255 1710 5552 3227 Reservoir Dogs\001
-6
6 5401 3001 6526 3376
2 2 0 1 -1 7 0 0 -1 0.000 0 0 0 0 0 5
	 5402 3002 6452 3002 6452 3302 5402 3302 5402 3002
-6
-6
6 6525 2925 7950 3300
2 2 0 1 -1 7 0 0 -1 0.000 0 0 0 0 0 5
	 6527 2926 7352 2926 7352 3226 6527 3226 6527 2926
4 0 -1 0 0 3 9 0.0000000 4 195 1305 6602 3151 Twin Peaks\001
-6
6 6975 2100 8625 2700
2 2 0 1 -1 7 0 0 -1 0.000 0 0 0 0 0 5
	 6977 2177 7877 2177 7877 2627 6977 2627 6977 2177
4 0 -1 0 0 3 9 0.0000000 4 255 1515 7051 2326 Underground\001
4 0 -1 0 0 3 9 0.0000000 4 255 855 7052 2552 Vertigo\001
-6
6 5325 1650 6000 1950
2 2 0 1 -1 7 0 0 -1 0.000 0 0 0 0 0 5
	 5326 1651 5926 1651 5926 1876 5326 1876 5326 1651
4 0 -1 0 0 3 9 0.0000000 4 120 465 5401 1801 Shining\001
-6
6 6075 1650 6900 1950
2 2 0 1 -1 7 0 0 -1 0.000 0 0 0 0 0 5
	 6076 1876 6826 1876 6826 1651 6076 1651 6076 1876
4 0 -1 0 0 3 9 0.0000000 4 90 660 6151 1801 Twin Peaks\001
-6
2 1 0 1 -1 7 0 0 -1 0.000 0 0 -1 1 0 2
	1 1 1.00 60.00 120.00
	 3900 675 4575 975
2 1 0 1 -1 7 0 0 -1 0.000 0 0 -1 1 0 2
	1 1 1.00 60.00 120.00
	 4500 1200 4350 1650
2 1 0 1 -1 7 0 0 -1 0.000 0 0 -1 1 0 2
	1 1 1.00 60.00 120.00
	 5100 1200 5550 1650
2 1 0 1 -1 7 0 0 -1 0.000 0 0 -1 1 0 2
	1 1 1.00 60.00 120.00
	 5925 1200 6525 1650
2 1 0 1 -1 7 0 0 -1 0.000 0 0 -1 0 0 2
	 4350 1875 3975 2250
2 1 0 1 -1 7 0 0 -1 0.000 0 0 -1 1 0 2
	1 1 1.00 60.00 120.00
	 5025 1875 4500 3000
2 1 0 1 -1 7 0 0 -1 0.000 0 0 -1 1 0 2
	1 1 1.00 60.00 120.00
	 5400 1875 5025 3000
2 1 0 1 -1 7 0 0 -1 0.000 0 0 -1 1 0 2
	1 1 1.00 60.00 120.00
	 5925 1875 6300 3000
2 1 0 1 -1 7 0 0 -1 0.000 0 0 -1 1 0 2
	1 1 1.00 60.00 120.00
	 6150 1875 6525 2925
2 1 0 1 -1 7 0 0 -1 0.000 0 0 -1 1 0 2
	1 1 1.00 60.00 120.00
	 6825 1875 7275 2175
2 1 0 1 -1 7 0 0 -1 0.000 0 0 -1 1 0 2
	1 1 1.00 60.00 120.00
	 3075 675 2100 975
2 1 0 1 -1 7 0 0 -1 0.000 0 0 -1 1 0 2
	1 1 1.00 60.00 120.00
	 1425 1200 1125 1650
2 1 0 1 -1 7 0 0 -1 0.000 0 0 -1 1 0 2
	1 1 1.00 60.00 120.00
	 2100 1200 2250 1650
2 1 0 1 -1 7 0 0 -1 0.000 0 0 -1 1 0 2
	1 1 1.00 60.00 120.00
	 1050 1875 750 2175
2 1 0 1 -1 7 0 0 -1 0.000 0 0 -1 1 0 2
	1 1 1.00 60.00 120.00
	 1575 1875 1200 2925
2 1 0 1 -1 7 0 0 -1 0.000 0 0 -1 1 0 2
	1 1 1.00 60.00 120.00
	 1725 1875 1425 2925
2 1 0 1 -1 7 0 0 -1 0.000 0 0 -1 1 0 2
	1 1 1.00 60.00 120.00
	 2550 1875 2775 2250
2 1 0 1 -1 7 0 0 -1 0.000 0 0 -1 1 0 4
	1 1 1.00 60.00 120.00
	 825 3375 825 3525 1350 3525 1350 3375
2 1 0 1 -1 7 0 0 -1 0.000 0 0 -1 1 0 4
	1 1 1.00 60.00 120.00
	 2100 2925 2100 2100 2400 2100 2400 2250
2 1 0 1 -1 7 0 0 -1 0.000 0 0 -1 1 0 4
	1 1 1.00 60.00 120.00
	 3150 2250 3150 2100 3600 2100 3600 2250
2 1 0 1 -1 7 0 0 -1 0.000 0 0 -1 0 0 3
	 3525 2700 3525 3150 3900 3150
2 1 0 1 -1 7 0 0 -1 0.000 0 0 -1 1 0 3
	1 1 1.00 60.00 120.00
	 4275 3225 4275 3375 4725 3375
2 1 0 1 -1 7 0 0 -1 0.000 0 0 -1 1 0 4
	1 1 1.00 60.00 120.00
	 5100 3450 5100 3525 5625 3525 5625 3300
2 1 0 1 -1 7 0 0 -1 0.000 0 0 -1 1 0 4
	1 1 1.00 60.00 120.00
	 6225 3300 6225 3450 6600 3450 6600 3225
2 1 0 1 -1 7 0 0 -1 0.000 0 0 -1 1 0 3
	1 1 1.00 60.00 120.00
	 7350 3075 7500 3075 7500 2625
2 1 0 1 -1 7 0 0 -1 0.000 0 0 7 1 0 3
	1 1 1.00 60.00 120.00
	 150 2625 150 3150 300 3150
