#FIG 3.1
Portrait
Center
Inches
1200 2
6 4202 376 4877 751
4 0 -1 0 0 0 10 0.0000000 4 180 1020 4203 452 vers une\001
4 0 -1 0 0 0 10 0.0000000 4 270 1260 4203 668 autre page\001
-6
2 1 0 1 -1 7 0 0 -1 0.000 0 0 -1 1 0 5
	1 1 1.00 60.00 120.00
	 1650 450 1650 225 750 225 750 1125 1050 1125
2 1 0 1 -1 7 0 0 -1 0.000 0 0 -1 0 0 2
	 1502 301 1502 526
2 1 0 1 -1 7 0 0 -1 0.000 0 0 -1 0 0 2
	 1802 301 1802 526
2 1 0 1 -1 7 0 0 -1 0.000 0 0 -1 0 0 2
	 2102 301 2102 526
2 1 0 1 -1 7 0 0 -1 0.000 0 0 -1 0 0 2
	 3602 301 3602 526
2 1 0 1 -1 7 0 0 -1 0.000 0 0 -1 1 0 2
	1 1 1.00 60.00 120.00
	 3827 451 4127 451
2 1 0 1 -1 7 0 0 -1 0.000 0 0 -1 0 0 2
	 1277 301 1277 526
2 2 0 1 -1 7 0 0 -1 0.000 0 0 0 0 0 5
	 1052 301 3902 301 3902 526 1052 526 1052 301
2 1 0 1 -1 7 0 0 -1 0.000 0 0 -1 1 0 4
	1 1 1.00 60.00 120.00
	 1126 375 825 375 825 900 1051 900
2 1 0 1 -1 7 0 0 -1 0.000 0 0 -1 1 0 4
	1 1 1.00 60.00 120.00
	 1351 450 900 450 900 675 1051 675
2 2 0 1 -1 7 0 0 -1 0.000 0 0 0 0 0 5
	 1050 300 3900 300 3900 1875 1050 1875 1050 300
2 3 0 1 -1 7 0 0 17 0.000 0 0 -1 0 0 7
	 1050 1200 3900 1200 3900 1050 3900 975 3900 1875 1050 1875
	 1050 1200
2 2 0 1 -1 7 0 0 -1 0.000 0 0 0 0 0 5
	 1052 526 3900 526 3900 750 1052 750 1052 526
4 0 -1 0 0 0 10 0.0000000 4 240 1080 1575 1125 Article 3\001
4 0 -1 0 0 0 10 0.0000000 4 240 1080 1575 900 Article 1\001
4 0 -1 0 0 0 10 0.0000000 4 240 1080 1575 675 Article 2\001
4 0 -1 0 0 0 10 0.0000000 4 60 225 2177 451 ...\001
4 0 -1 0 0 2 10 0.0000000 4 240 1980 1950 1575 PLACE LIBRE\001
