#FIG 3.2
Landscape
Center
Metric
A4      
100.00
Single
-2
1200 2
6 360 360 1440 1485
2 4 0 1 0 6 100 0 20 0.000 0 0 7 0 0 5
	 1215 810 1215 360 360 360 360 810 1215 810
2 4 0 1 0 3 100 0 20 0.000 0 0 7 0 0 5
	 1215 1485 1215 1080 360 1080 360 1485 1215 1485
2 1 0 1 0 3 100 0 -1 0.000 0 0 -1 0 0 3
	 1440 945 1440 1305 1215 1305
4 0 0 50 0 0 10 0.0000 4 105 495 540 630 Table A\001
4 0 0 50 0 0 10 0.0000 4 105 465 585 1305 Table B\001
-6
6 2745 315 3645 1575
6 2745 315 3645 585
2 2 0 1 0 6 100 0 20 0.000 0 0 7 0 0 5
	 2745 360 3285 360 3285 585 2745 585 2745 360
2 2 0 1 0 3 100 0 20 0.000 0 0 -1 0 0 5
	 3105 315 3645 315 3645 540 3105 540 3105 315
-6
6 2745 585 3645 855
2 2 0 1 0 6 100 0 20 0.000 0 0 7 0 0 5
	 2745 630 3285 630 3285 855 2745 855 2745 630
2 2 0 1 0 3 100 0 20 0.000 0 0 -1 0 0 5
	 3105 585 3645 585 3645 810 3105 810 3105 585
-6
6 2745 1305 3645 1575
2 2 0 1 0 6 100 0 20 0.000 0 0 7 0 0 5
	 2745 1350 3285 1350 3285 1575 2745 1575 2745 1350
2 2 0 1 0 3 100 0 20 0.000 0 0 -1 0 0 5
	 3105 1305 3645 1305 3645 1530 3105 1530 3105 1305
-6
4 0 0 50 0 1 10 0.0000 4 105 180 2880 540 A1\001
4 0 0 50 0 1 10 0.0000 4 105 165 3375 495 B1\001
4 0 0 50 0 1 10 0.0000 4 105 180 2880 810 A2\001
4 0 0 50 0 1 10 0.0000 4 105 165 3375 765 B2\001
4 0 0 50 0 1 10 0.0000 4 105 180 2880 1530 A6\001
4 0 0 50 0 1 10 0.0000 4 105 165 3420 1485 B6\001
-6
2 1 0 1 0 7 50 0 -1 0.000 0 0 -1 0 0 2
	 2250 630 2385 630
2 1 0 1 0 7 50 0 -1 0.000 0 0 -1 0 0 2
	 2250 810 2385 810
2 1 0 1 0 7 50 0 -1 0.000 0 0 -1 0 0 2
	 2250 990 2385 990
2 1 0 1 0 7 50 0 -1 0.000 0 0 -1 0 0 2
	 2250 1170 2385 1170
2 1 0 1 0 7 50 0 -1 0.000 0 0 -1 0 0 2
	 2250 1350 2385 1350
2 1 0 1 0 3 100 0 20 0.000 0 0 -1 1 0 2
	1 1 1.00 60.00 120.00
	 2385 495 2745 495
2 2 0 1 0 7 50 0 -1 0.000 0 0 -1 0 0 5
	 2250 450 2385 450 2385 1530 2250 1530 2250 450
2 1 0 1 0 3 100 0 -1 0.000 0 0 7 0 0 4
	 2205 450 2070 450 2070 1530 2160 1530
2 1 0 1 0 3 100 0 -1 0.000 0 0 -1 0 0 4
	 1215 630 1440 630 1440 990 2070 990
2 1 0 1 0 3 100 0 20 0.000 0 0 -1 1 0 2
	1 1 1.00 60.00 120.00
	 2385 720 2745 720
2 1 0 1 0 3 100 0 20 0.000 0 0 -1 1 0 2
	1 1 1.00 60.00 120.00
	 2385 1440 2745 1440
4 0 0 50 0 0 10 0.0000 4 150 525 2070 315 m\351moire\001
4 0 0 100 0 1 10 0.0000 4 150 510 1530 900 hachage\001
