#FIG 3.2
Portrait
Center
Inches
Letter  
100.00
Single
-2
1200 2
1 3 0 1 -1 -1 0 0 -1 0.000 1 0.0000 4625 1045 66 66 4625 1045 4690 1110
1 3 0 1 -1 -1 0 0 -1 0.000 1 0.0000 5538 1581 66 66 5538 1581 5604 1647
1 3 0 1 -1 -1 0 0 -1 0.000 1 0.0000 6244 2241 66 66 6244 2241 6310 2307
1 3 0 1 -1 -1 0 0 -1 0.000 1 0.0000 5538 2287 66 66 5538 2287 5604 2354
1 3 0 1 -1 -1 0 0 -1 0.000 1 0.0000 4832 2269 66 66 4832 2269 4898 2334
1 3 0 1 -1 -1 0 0 -1 0.000 1 0.0000 4032 2287 66 66 4032 2287 4097 2354
1 3 0 1 -1 -1 0 0 -1 0.000 1 0.0000 3370 2286 66 66 3370 2286 3437 2353
1 3 0 1 -1 -1 0 0 -1 0.000 1 0.0000 3748 1581 70 70 3748 1581 3785 1640
2 2 0 2 -1 -1 0 0 -1 0.000 0 0 7 0 0 5
	 2674 2654 2674 582 602 582 602 2654 2674 2654
2 2 1 3 -1 -1 0 0 -1 8.000 0 0 0 0 0 5
	 1590 2654 1590 582 602 582 602 2654 1590 2654
2 2 1 3 -1 -1 0 0 -1 8.000 0 0 0 0 0 5
	 2674 2372 2674 582 1355 582 1355 2372 2674 2372
2 2 1 1 -1 -1 0 0 -1 1.000 0 0 7 0 0 5
	 1544 2607 649 2607 649 1477 1544 1477 1544 2607
2 2 1 1 -1 -1 0 0 -1 1.000 0 0 0 0 0 5
	 2532 2325 1779 2325 1779 1901 2532 1901 2532 2325
2 2 1 1 -1 -1 0 0 -1 1.000 0 0 7 0 0 5
	 1308 1430 696 1430 696 630 1308 630 1308 1430
2 2 0 1 0 7 1 0 10 0.000 0 0 7 0 0 5
	 931 1619 931 1477 649 1477 649 1619 931 1619
2 2 0 1 0 7 1 0 10 0.000 0 0 7 0 0 5
	 1213 1430 1213 959 1073 959 1073 1430 1213 1430
2 2 0 1 0 7 1 0 10 0.000 0 0 7 0 0 5
	 1026 1101 1026 959 743 959 743 1101 1026 1101
2 2 0 1 0 7 1 0 10 0.000 0 0 7 0 0 5
	 884 818 884 630 696 630 696 818 884 818
2 2 0 1 0 7 1 0 10 0.000 0 0 7 0 0 5
	 1308 818 1308 677 931 677 931 818 1308 818
2 2 0 1 0 7 1 0 10 0.000 0 0 7 0 0 5
	 1637 959 1637 724 1402 724 1402 959 1637 959
2 2 0 1 0 7 1 0 10 0.000 0 0 7 0 0 5
	 2343 866 2343 630 2014 630 2014 866 2343 866
2 2 0 1 0 7 1 0 10 0.000 0 0 7 0 0 5
	 2627 1053 2627 630 2391 630 2391 1053 2627 1053
2 2 0 1 0 7 1 0 10 0.000 0 0 7 0 0 5
	 2532 2325 2532 1948 2297 1948 2297 2325 2532 2325
2 2 0 1 0 7 1 0 10 0.000 0 0 7 0 0 5
	 2156 2042 2156 1901 1779 1901 1779 2042 2156 2042
2 2 1 1 -1 -1 0 0 -1 1.000 0 0 7 0 0 5
	 1826 1619 2627 1619 2627 630 1826 630 1826 1619
2 2 0 1 0 7 1 0 10 0.000 0 0 7 0 0 5
	 2203 1807 2203 1619 1826 1619 1826 1807 2203 1807
2 2 1 1 -1 -1 0 0 -1 1.000 0 0 7 0 0 5
	 2195 1800 1394 1800 1394 717 2195 717 2195 1800
2 2 0 1 0 7 1 0 10 0.000 0 0 7 0 0 5
	 1544 2419 1544 2230 1167 2230 1167 2419 1544 2419
2 2 0 1 0 7 1 0 10 0.000 0 0 7 0 0 5
	 978 2607 978 2466 696 2466 696 2607 978 2607
2 1 0 1 0 7 0 0 10 0.000 0 0 -1 1 0 2
	1 1 1.00 60.00 120.00
	 1725 2550 1575 2550
2 1 0 1 0 7 0 0 10 0.000 0 0 -1 1 0 2
	1 1 1.00 60.00 120.00
	 2550 2550 2550 2400
2 1 0 1 -1 -1 0 0 -1 0.000 0 0 -1 0 0 2
	 4555 1045 3772 1515
2 1 0 1 -1 -1 0 0 -1 0.000 0 0 -1 0 0 2
	 4695 1040 5535 1520
2 1 0 1 -1 -1 0 0 -1 0.000 0 0 -1 0 0 2
	 3810 1625 4020 2220
2 1 0 1 -1 -1 0 0 -1 0.000 0 0 -1 0 0 2
	 3697 1627 3397 2235
2 1 0 1 -1 -1 0 0 -1 0.000 0 0 -1 0 0 2
	 5475 1597 4860 2210
2 1 0 1 -1 -1 0 0 -1 0.000 0 0 -1 0 0 2
	 5595 1590 6247 2168
2 1 0 1 -1 -1 0 0 -1 0.000 0 0 -1 0 0 2
	 5542 1650 5545 2225
2 2 0 1 0 7 100 0 10 0.000 0 0 7 0 0 5
	 2532 1619 2532 1336 2343 1336 2343 1619 2532 1619
2 2 0 1 0 7 100 0 10 0.000 0 0 7 0 0 5
	 1967 1524 1967 771 1732 771 1732 1524 1967 1524
2 2 0 1 0 7 99 0 10 0.000 0 0 7 0 0 5
	 2438 1383 2438 1195 1826 1195 1826 1383 2438 1383
4 0 0 0 0 0 8 0.0000 4 90 60 743 2560 4\001
4 0 0 0 0 0 8 0.0000 4 90 60 1213 2372 7\001
4 0 0 0 0 0 8 0.0000 4 90 60 743 1571 3\001
4 0 0 0 0 0 8 0.0000 4 90 60 836 1053 2\001
4 0 0 0 0 0 8 0.0000 4 90 60 743 771 1\001
4 0 0 0 0 0 8 0.0000 4 90 60 1072 771 5\001
4 0 0 0 0 0 8 0.0000 4 90 60 1120 1242 6\001
4 0 0 0 0 0 8 0.0000 4 90 120 1450 866 14\001
4 0 0 0 0 0 8 0.0000 4 90 120 2061 818 11\001
4 0 0 0 0 0 8 0.0000 4 90 120 2485 818 15\001
4 0 0 0 0 0 8 0.0000 4 90 120 2391 1524 13\001
4 0 0 0 0 0 8 0.0000 4 90 120 2014 1336 12\001
4 0 0 0 0 0 8 0.0000 4 90 60 1873 1053 8\001
4 0 0 0 0 0 8 0.0000 4 90 120 1873 1995 10\001
4 0 0 0 0 0 8 0.0000 4 90 60 2014 1759 9\001
4 0 0 0 0 0 8 0.0000 4 90 120 2343 2136 16\001
4 0 -1 0 0 1 10 0.0000 4 105 75 750 2250 b\001
4 0 -1 0 0 1 10 0.0000 4 75 75 750 1350 a\001
4 0 -1 0 0 1 10 0.0000 4 105 90 1800 2550 R\001
4 0 -1 0 0 1 10 0.0000 4 75 60 1500 1350 c\001
4 0 -1 0 0 1 10 0.0000 4 105 75 2475 1275 d\001
4 0 -1 0 0 1 10 0.0000 4 75 60 2025 2175 e\001
4 0 -1 0 0 1 10 0.0000 4 105 135 2775 2625 R'\001
4 0 -1 0 0 1 10 0.0000 4 135 45 2400 2550 f\001
4 0 -1 0 0 1 10 0.0000 4 105 135 4549 828 R'\001
4 0 -1 0 0 1 10 0.0000 4 75 75 3230 2192 a\001
4 0 -1 0 0 1 10 0.0000 4 75 60 5349 2147 c\001
4 0 -1 0 0 1 10 0.0000 4 105 75 3825 2250 b\001
4 0 -1 0 0 1 10 0.0000 4 75 60 4725 2175 e\001
4 0 -1 0 0 1 10 0.0000 4 105 90 3600 1500 R\001
4 0 -1 0 0 1 10 0.0000 4 135 45 5625 1425 f\001
4 0 0 0 0 0 8 0.0000 4 120 420 3183 2569 [1,2,5,6]\001
4 0 0 0 0 0 8 0.0000 4 120 330 3890 2570 [3,4,7]\001
4 0 0 0 0 0 8 0.0000 4 120 360 4689 2568 [10,16]\001
4 0 0 0 0 0 8 0.0000 4 120 390 5347 2568 [8,9,14]\001
4 0 0 0 0 0 8 0.0000 4 120 660 5913 2568 [11,12,13,15]\001
4 0 -1 0 0 1 10 0.0000 4 105 75 6032 2177 d\001
