#FIG 3.1
Portrait
Center
Inches
1200 2
1 4 0 1 -1 7 0 0 15 0.0000000 1 0.000 637 2437 160 160 525 2325 750 2550
1 4 0 1 -1 7 0 0 15 0.0000000 1 0.000 2287 1687 160 160 2175 1575 2400 1800
1 4 0 1 -1 7 0 0 15 0.0000000 1 0.000 4012 1612 160 160 3900 1500 4125 1725
1 4 0 1 -1 7 0 0 15 0.0000000 1 0.000 4012 862 160 160 3900 750 4125 975
1 4 0 1 -1 7 0 0 -1 0.0000000 1 0.000 1387 862 160 160 1275 750 1500 975
1 4 0 1 -1 7 0 0 15 0.0000000 1 0.000 3890 2411 160 160 3778 2299 4003 2524
1 4 0 1 -1 7 0 0 -1 0.0000000 1 0.000 3892 2774 160 160 3780 2662 4005 2887
1 4 0 1 -1 7 0 0 15 0.0000000 1 0.000 2287 2430 160 160 2175 2318 2400 2543
1 4 0 1 -1 7 0 0 -1 0.0000000 1 0.000 2841 360 160 160 2729 248 2954 473
2 1 0 1 -1 7 0 0 15 0.000 0 0 -1 0 0 2
	 645 2310 1305 1005
2 1 0 1 -1 7 0 0 15 0.000 0 0 -1 0 0 2
	 1500 975 2205 1545
2 1 0 1 -1 7 0 0 15 0.000 0 0 -1 0 0 2
	 2280 1860 2280 2250
2 1 0 1 -1 7 0 0 15 0.000 0 0 -1 0 0 2
	 3000 375 3915 742
2 1 0 1 -1 7 0 0 15 0.000 0 0 -1 0 0 2
	 4012 1035 4020 1447
2 2 0 1 -1 7 0 0 -1 0.000 0 0 7 0 0 5
	 3577 2167 5497 2167 5497 2992 3577 2992 3577 2167
2 1 0 1 -1 7 0 0 -1 0.000 0 0 -1 0 0 2
	 1530 795 2685 367
4 0 -1 0 0 0 10 0.0000000 4 240 1590 900 2475 FULL SCAN\001
4 0 -1 0 0 0 10 0.0000000 4 240 1485 2550 1725 BY ROWID\001
4 0 -1 0 0 0 10 0.0000000 4 240 1965 1575 375 NESTED LOOP\001
4 0 -1 0 0 0 10 0.0000000 4 240 1770 4275 1650 INDEX SCAN\001
4 0 -1 0 0 0 10 0.0000000 4 240 1785 3675 2025 IDX-Salle-ID\001
4 0 -1 0 0 0 10 0.0000000 4 240 1485 4275 900 BY ROWID\001
4 0 -1 0 0 0 10 0.0000000 4 240 1965 150 900 NESTED LOOP\001
4 0 -1 0 0 0 10 0.0000000 4 240 615 1800 1950 Salle\001
4 0 -1 0 0 0 10 0.0000000 4 240 945 150 2775 Cin\351ma\001
4 0 -1 0 0 0 10 0.0000000 4 240 2055 1875 2775 IDX-cin\351ma-ID\001
4 0 -1 0 0 0 10 0.0000000 4 240 855 3525 1200 S\351ance\001
4 0 -1 0 0 0 10 0.0000000 4 240 1770 2520 2482 INDEX SCAN\001
4 0 -1 0 0 0 10 0.0000000 4 300 2385 4170 2827 Op\351ration physique\001
4 0 -1 0 0 0 10 0.0000000 4 240 1950 4185 2454 Chemin d'acc\350s\001
4 0 -1 0 0 0 18 0.0000000 4 405 270 2760 443 1\001
4 0 -1 0 0 0 18 0.0000000 4 405 270 1335 975 2\001
4 0 -1 0 0 0 18 0.0000000 4 405 270 570 2550 3\001
4 0 -1 0 0 0 18 0.0000000 4 405 270 2226 1799 4\001
4 0 -1 0 0 0 18 0.0000000 4 405 270 2235 2542 5\001
4 0 -1 0 0 0 18 0.0000000 4 405 270 3953 1725 7\001
4 0 -1 0 0 0 18 0.0000000 4 405 270 3945 952 6\001
