#FIG 3.1
Portrait
Center
Inches
1200 2
2 2 0 1 -1 7 0 0 -1 0.000 0 0 0 0 0 5
	 3225 2850 4350 2850 4350 3900 3225 3900 3225 2850
2 2 0 1 -1 7 0 0 -1 0.000 0 0 0 0 0 5
	 1500 2850 2625 2850 2625 3900 1500 3900 1500 2850
2 2 0 1 -1 7 0 0 -1 0.000 0 0 0 0 0 5
	 225 2850 1350 2850 1350 3900 225 3900 225 2850
2 1 0 1 -1 7 0 0 -1 0.000 0 0 -1 0 0 4
	 225 2775 225 2700 2625 2700 2625 2775
2 1 0 1 -1 7 0 0 -1 0.000 0 0 -1 0 1 2
	1 1 1.00 60.00 120.00
	 825 3975 2250 4425
2 1 0 1 -1 7 0 0 -1 0.000 0 0 -1 1 0 2
	1 1 1.00 60.00 120.00
	 2400 4425 2400 3975
2 1 0 1 -1 7 0 0 -1 0.000 0 0 -1 1 0 2
	1 1 1.00 60.00 120.00
	 2475 4425 3675 3975
2 4 0 1 -1 7 0 0 20 0.000 0 0 7 0 0 5
	 2475 3750 2475 3375 450 3375 450 3750 2475 3750
2 4 0 1 -1 7 0 0 20 0.000 0 0 7 0 0 5
	 2175 3150 2175 2925 1125 2925 1125 3150 2175 3150
2 4 0 1 -1 7 0 0 -1 0.000 0 0 7 0 0 5
	 4275 3225 4275 2925 3375 2925 3375 3225 4275 3225
2 4 0 1 -1 7 0 0 -1 0.000 0 0 7 0 0 5
	 4275 3825 4275 3375 3375 3375 3375 3825 4275 3825
2 4 0 1 -1 7 0 0 20 0.000 0 0 7 0 0 5
	 1050 3150 1050 2925 375 2925 375 3150 1050 3150
4 0 -1 0 0 0 10 0.0000000 4 300 1590 1050 2625 Tablespace 1\001
4 0 -1 0 0 0 10 0.0000000 4 300 1590 3450 2625 Tablespace 2\001
4 0 -1 0 0 0 10 0.0000000 4 240 990 2100 4575 Fichiers\001
4 0 -1 0 0 0 10 0.0000000 4 240 1530 3450 3600 Dictionnaire\001
4 0 -1 0 0 0 10 0.0000000 4 240 960 3600 3075 Table C\001
4 0 -1 0 0 0 10 0.0000000 4 240 1050 450 3075 Table  A\001
4 0 -1 0 0 0 10 0.0000000 4 240 960 1125 3600 Table B\001
4 0 -1 0 0 0 10 0.0000000 4 240 690 1425 3075 Index\001


