#FIG 3.2
Portrait
Center
Inches
Letter  
100.00
Single
-2
1200 2
6 1949 299 3149 524
2 1 0 1 -1 7 0 0 -1 0.000 0 0 -1 0 0 2
	 2100 300 2100 450
2 1 0 1 -1 7 0 0 -1 0.000 0 0 -1 0 0 2
	 2250 300 2250 450
2 1 0 1 -1 7 0 0 -1 0.000 0 0 -1 0 0 2
	 2400 300 2400 450
2 1 0 1 -1 7 0 0 -1 0.000 0 0 -1 0 0 2
	 2550 300 2550 450
2 1 0 1 -1 7 0 0 -1 0.000 0 0 -1 0 0 2
	 2700 300 2700 450
2 2 0 1 -1 7 0 0 -1 0.000 0 0 0 0 0 5
	 1950 300 3075 300 3075 450 1950 450 1950 300
4 0 -1 0 0 1 10 0.0000 4 15 135 2850 375 ...\001
-6
6 3150 1125 4350 1350
2 1 0 1 -1 7 0 0 -1 0.000 0 0 -1 0 0 2
	 3301 1126 3301 1276
2 1 0 1 -1 7 0 0 -1 0.000 0 0 -1 0 0 2
	 3451 1126 3451 1276
2 1 0 1 -1 7 0 0 -1 0.000 0 0 -1 0 0 2
	 3601 1126 3601 1276
2 1 0 1 -1 7 0 0 -1 0.000 0 0 -1 0 0 2
	 3751 1126 3751 1276
2 1 0 1 -1 7 0 0 -1 0.000 0 0 -1 0 0 2
	 3901 1126 3901 1276
2 2 0 1 -1 7 0 0 -1 0.000 0 0 0 0 0 5
	 3151 1126 4276 1126 4276 1276 3151 1276 3151 1126
4 0 -1 0 0 1 10 0.0000 4 15 135 4051 1201 ...\001
-6
6 4350 1125 5550 1350
2 1 0 1 -1 7 0 0 -1 0.000 0 0 -1 0 0 2
	 4501 1126 4501 1276
2 1 0 1 -1 7 0 0 -1 0.000 0 0 -1 0 0 2
	 4651 1126 4651 1276
2 1 0 1 -1 7 0 0 -1 0.000 0 0 -1 0 0 2
	 4801 1126 4801 1276
2 1 0 1 -1 7 0 0 -1 0.000 0 0 -1 0 0 2
	 4951 1126 4951 1276
2 1 0 1 -1 7 0 0 -1 0.000 0 0 -1 0 0 2
	 5101 1126 5101 1276
2 2 0 1 -1 7 0 0 -1 0.000 0 0 0 0 0 5
	 4351 1126 5476 1126 5476 1276 4351 1276 4351 1126
4 0 -1 0 0 1 10 0.0000 4 15 135 5251 1201 ...\001
-6
1 2 0 1 0 7 50 0 -1 0.000 1 0.0000 2512 338 787 262 1725 76 3300 601
2 1 1 1 -1 7 0 0 -1 4.000 0 0 -1 1 0 2
	1 1 1.00 60.00 120.00
	 2475 450 2025 1125
2 1 1 1 -1 7 0 0 -1 4.000 0 0 -1 1 0 2
	1 1 1.00 60.00 120.00
	 2550 450 3525 1125
2 1 1 1 -1 7 0 0 -1 4.000 0 0 -1 1 0 2
	1 1 1.00 60.00 120.00
	 2625 450 4725 1125
2 1 1 1 -1 7 0 0 -1 4.000 0 0 7 0 0 2
	 2700 450 5025 825
2 1 2 1 -1 7 0 0 -1 3.000 0 0 -1 0 0 2
	 5025 825 5475 900
2 1 0 1 -1 7 0 0 -1 0.000 0 0 -1 0 0 2
	 2101 1126 2101 1276
2 1 0 1 -1 7 0 0 -1 0.000 0 0 -1 0 0 2
	 2251 1126 2251 1276
2 1 0 1 -1 7 0 0 -1 0.000 0 0 -1 0 0 2
	 2401 1126 2401 1276
2 1 0 1 -1 7 0 0 -1 0.000 0 0 -1 0 0 2
	 2551 1126 2551 1276
2 1 0 1 -1 7 0 0 -1 0.000 0 0 -1 0 0 2
	 2701 1126 2701 1276
2 2 0 1 -1 7 0 0 -1 0.000 0 0 0 0 0 5
	 1951 1126 3076 1126 3076 1276 1951 1276 1951 1126
2 2 0 1 0 7 50 0 -1 0.000 0 0 -1 0 0 5
	 150 1125 1125 1125 1125 1275 150 1275 150 1125
2 1 1 1 -1 7 0 0 -1 4.000 0 0 -1 1 0 2
	1 1 1.00 60.00 120.00
	 611 1109 1725 375
4 0 -1 0 0 1 10 0.0000 4 15 135 5700 1275 ...\001
4 0 0 100 0 0 10 0.0000 6 150 900 2025 1500 Fragments tri\351s\001
4 0 0 100 0 0 10 0.0000 6 135 510 2250 225 M pages\001
4 0 0 100 0 0 10 0.0000 6 150 1155 3375 225 M\351moire principale\001
4 0 -1 0 0 1 10 0.0000 4 15 135 2851 1201 ...\001
4 0 0 100 0 0 10 0.0000 6 135 420 1350 1125 Disque\001
4 0 0 50 0 0 10 0.0000 4 150 810 150 1500 Fichier \340 trier\001
4 0 0 50 0 0 10 0.0000 4 105 465 525 750 Lecture\001
4 0 0 50 0 0 10 0.0000 4 105 510 2400 825 Ecriture\001
